Data Cleaning
…
# A tibble: 0 × 4
# ℹ 4 variables: email <chr>, first_name <chr>, last_name <chr>,
#   student_id <chr>

# Identify Duplicate Registrations (Same patricipant + Event)
attendance_all_years %>%
  count(student_id, workshop) %>%
  filter(n > 1)

# A tibble: 365 × 3
   student_id                                                     workshop     n
   <chr>                                                          <chr>    <int>
 1 005761e1728182d5f2fac081b5eeee96f65b308d02c5f347e27babff01569… Introdu…     2
 2 00a3c9eb9fc51e6e49b6d4ed59945ed6d8307c96876370927d9d243b3e99e… Introdu…     2
 3 0174fa0d808d8031add90e2e39ae06729e59c4c7b04727a9932f9f080f02a… Explori…     2
 4 019a25f94340e785f328ee27f57feacb6b0b080f73a30dba5701a5ed1ae24… Data vi…     2
 5 01afa3e51bd831918cc8bbe12f28e782922b725e610789b879d6ac0480cd6… Longitu…     2
 6 021dc79f6a223f37473622f6066310f28c70866d436c87e3559a0eb0067e5… Statist…     2
 7 0358580c4825087b9f6a1d5fe60046d784bbe197343733617427c4e359c0f… Introdu…     2
 8 0386d111981e4555a2600b29e6312bd84337ba39a2ced8a8e639eb7324bbf… Decisio…     2
 9 0386d111981e4555a2600b29e6312bd84337ba39a2ced8a8e639eb7324bbf… Introdu…     2
10 04bc6e43f139b24838aae7a5667a8e2e6aca5c0fd1ddba877adc43bf97939… Statist…     2
# ℹ 355 more rows

attendance_all_years %>%
  filter(duplicated(select(., student_id, workshop)) | duplicated(select(., student_id, workshop), fromLast = TRUE))

# A tibble: 810 × 37
   first_name    last_name   ticket_type  order_id ticket_no order_date_time    
   <chr>         <chr>       <chr>        <chr>    <chr>     <dttm>             
 1 Jinyun        Cai         QCIF Members 2F3JYTKS 1st       2024-01-31 14:50:00
 2 Abdulmalik    Almutairi   QCIF Members 3MT7H3SU 1st       2024-01-16 10:10:00
 3 Mollie        Cooper      QCIF Members 2YH5VPPR 1st       2024-01-15 13:31:00
 4 Eric Nkemjika Mark        QCIF Members WUNLMQBN 1st       2024-01-31 18:17:00
 5 Charu         Maini       QCIF Members Q6P98TKE 1st       2024-01-17 09:47:00
 6 Sokun         Song        QCIF Members JKULHRAR 1st       2024-01-16 07:45:00
 7 Jenny         Lee         QCIF Members NP92HPUP 1st       2024-02-13 12:31:00
 8 Paula         Gomez       QCIF Members BAFC8PTV 1st       2024-01-12 13:36:00
 9 Cameron       Leckie      QCIF Members HRKVPDMP 1st       2024-02-09 20:37:00
10 Francisca     Diaz-Aviles QCIF Members T6KHLP5F 1st       2024-02-09 10:25:00
# ℹ 800 more rows
# ℹ 31 more variables: timezone <chr>, buyer_first_name <chr>,
#   buyer_last_name <chr>, buyer_mobile <chr>, buyer_email <chr>, email <chr>,
#   mobile <chr>, i_am <chr>, organisation <chr>, school_or_faculty <chr>,
#   how_did_you_find_out_about_this_workshop <chr>, paid <chr>,
#   humanitix_absorbed_fees <chr>, amex_surcharge <chr>, refunds <chr>,
#   your_earnings <chr>, refunded_fees <chr>, discount_redeemed <chr>, …
…
