03_data_analysis
…
06. Institutional Reach

This section shows how QCIF training is distributed across organisations.

6.1 Unique Participants by Organisation (Table)

org_summary <- attendance_with_prices %>%
filter(!is.na(organisation) & organisation != "") %>%
group_by(organisation) %>%
summarise(unique_participants = n_distinct(student_id), .groups = "drop") %>%
arrange(desc(unique_participants))

org_summary

# A tibble: 30 × 2
   organisation                        unique_participants
   <chr>                                             <int>
 1 University of Queensland                            555
 2 Queensland University of Technology                 368
 3 Griffith University                                 275
 4 James Cook University                               243
 5 University of the Sunshine Coast                    141
 6 Non-University / Unknown                            127
 7 Central Queensland University                       114
 8 Southern Cross University                           106
 9 University of New South Wales                        79
10 University of Southern Queensland                    64
# ℹ 20 more rows
…
For institutions with smaller numbers, consider targeted outreach or joint campaigns with local champions to raise visibility.

At national level, use these figures in reporting to demonstrate QCIF’s reach across NCRIS and beyond.

6.2 Organisation × Workshop Heatmap (Visual)

table_org_workshop <- attendance_with_prices %>%
  filter(!is.na(organisation) & organisation != "") %>%
  group_by(organisation, workshop) %>%
  summarise(unique_participants = n_distinct(student_id), .groups = "drop") %>%
  arrange(desc(unique_participants))

table_org_workshop

# A tibble: 397 × 3
   organisation                        workshop              unique_participants
   <chr>                               <chr>                               <int>
 1 University of Queensland            Introduction to prog…                 127
 2 Griffith University                 Introduction to prog…                 106
 3 Queensland University of Technology Introduction to prog…                  97
 4 Queensland University of Technology Introduction to prog…                  96
 5 University of Queensland            Statistical comparis…                  76
 6 University of Queensland            Introduction to prog…                  75
 7 Griffith University                 Introduction to prog…                  73
 8 Queensland University of Technology Introduction to spss                   66
 9 Queensland University of Technology Statistical comparis…                  65
10 Griffith University                 Data visualisation f…                  59
# ℹ 387 more rows
…
9.3 Number of Workshops Each Organisation Participated In (Table)

org_workshop_coverage <- attendance_with_prices %>%
  filter(!is.na(organisation) & organisation != "") %>%
  group_by(organisation) %>%
  summarise(
    n_workshops = n_distinct(workshop),
    total_participants = n_distinct(student_id)
  ) %>%
  arrange(desc(n_workshops))

org_workshop_coverage

# A tibble: 30 × 3
   organisation                        n_workshops total_participants
   <chr>                                     <int>              <int>
 1 Queensland University of Technology          31                368
 2 University of Queensland                     31                555
 3 Griffith University                          30                275
 4 James Cook University                        30                243
 5 Central Queensland University                29                114
 6 Southern Cross University                    29                106
 7 University of Southern Queensland            29                 64
 8 University of the Sunshine Coast             27                141
 9 Non-University / Unknown                     23                127
10 International University                     17                 58
# ℹ 20 more rows
…
